{
  "result": {
    "payment_id": "6328290960",
    "payment_status": "waiting",
    "pay_address": "TFVW8fW9Qn9G6sSdaUsXWANrWHmHGWJAQG",
    "price_amount": "6.2886645",
    "price_currency": "usdttrc20",
    "pay_amount": 6.288664,
    "amount_received": 4.270801,
    "pay_currency": "usdttrc20",
    "order_id": null,
    "order_description": null,
    "payin_extra_id": null,
    "ipn_callback_url": "http://localhost/api/v1/nowpayment/deposit-callback",
    "customer_email": null,
    "created_at": "2024-08-15T20:52:31.197Z",
    "updated_at": "2024-08-15T20:52:31.197Z",
    "purchase_id": "4408175943",
    "smart_contract": null,
    "network": "trx",
    "network_precision": null,
    "time_limit": null,
    "burning_percent": null,
    "expiration_estimate_date": "2024-08-15T21:12:31.197Z",
    "is_fixed_rate": false,
    "is_fee_paid_by_user": false,
    "valid_until": "2024-08-22T20:52:31.197Z",
    "type": "crypto2crypto",
    "product": "sub-partner-payment",
    "origin_ip": null,
    "invoice_id": "5695555379"
  }
}